{
  "SC Ganguly": {
    "2008": { "strikeRate": 107.71604938271604 },
    "2009": { "strikeRate": 88.73239436619718 },
    "2010": { "strikeRate": 112.04545454545453 },
    "2011": { "strikeRate": 81.9672131147541 },
    "2012": { "strikeRate": 93.05555555555556 }
  },
  "BB McCullum": {  
    "2008": { "strikeRate": 195.83333333333331 },
    "2009": { "strikeRate": 115.3225806451613 },
    "2010": { "strikeRate": 97.43589743589743 },
    "2011": { "strikeRate": 122.26027397260273 },
    "2012": { "strikeRate": 100.69686411149826 },
    "2013": { "strikeRate": 85.71428571428571 },
    "2014": { "strikeRate": 118.76832844574781 },
    "2015": { "strikeRate": 148.80546075085323 },
    "2016": { "strikeRate": 129.67032967032966 },
    "2017": { "strikeRate": 140.96916299559473 }
  },
  "RT Ponting": {
    "2008": { "strikeRate": 73.58490566037736 },
    "2013": { "strikeRate": 68.42105263157895 }
  },
  "DJ Hussey": {
    "2008": { "strikeRate": 119.47565543071161 },
    "2009": { "strikeRate": 160.65573770491804 },
    "2010": { "strikeRate": 105.61797752808988 },
    "2011": { "strikeRate": 98.46153846153847 },
    "2012": { "strikeRate": 126.51757188498402 },
    "2013": { "strikeRate": 111.90476190476191 },
    "2014": { "strikeRate": 120.83333333333333 }
  },
  "Mohammad Hafeez": { "2008": { "strikeRate": 76.19047619047619 } },
  "R Dravid": {
    "2008": { "strikeRate": 124.08026755852843 },
    "2009": { "strikeRate": 113.38912133891212 },
    "2010": { "strikeRate": 126.10837438423646 },
    "2011": { "strikeRate": 107.18749999999999 },
    "2012": { "strikeRate": 108.96226415094338 },
    "2013": { "strikeRate": 108.77598152424943 }
  },
  "W Jaffer": {
    "2008": { "strikeRate": 104.54545454545455 },
    "2009": { "strikeRate": 78.94736842105263 }
  },
  "V Kohli": {
    "2008": { "strikeRate": 98.21428571428571 },
    "2009": { "strikeRate": 109.33333333333333 },
    "2010": { "strikeRate": 142.12962962962962 },
    "2011": { "strikeRate": 117.75898520084567 },
    "2012": { "strikeRate": 109.30930930930931 },  
    "2013": { "strikeRate": 135.66878980891718 },
    "2014": { "strikeRate": 119.26910299003322 },
    "2015": { "strikeRate": 127.84810126582278 },
    "2016": { "strikeRate": 148.54961832061068 },
    "2017": { "strikeRate": 119.8443579766537 }
  },    
  "JH Kallis": {
    "2008": { "strikeRate": 105.85106382978724 },
    "2009": { "strikeRate": 103.43839541547277 },
    "2010": { "strikeRate": 110.63829787234043 },
    "2011": { "strikeRate": 109.84455958549222 },
    "2012": { "strikeRate": 104.07124681933841 },
    "2013": { "strikeRate": 95.10703363914374 },
    "2014": { "strikeRate": 115.2671755725191 }
  },
  "CL White": {
    "2008": { "strikeRate": 108.57142857142857 },
    "2010": { "strikeRate": 145.45454545454547 },
    "2011": { "strikeRate": 95.41284403669725 },
    "2012": { "strikeRate": 146.48318042813455 },
    "2013": { "strikeRate": 112.99999999999999 }
  },
  "MV Boucher": {
    "2008": { "strikeRate": 124.30939226519338 },
    "2009": { "strikeRate": 123.96694214876034 },
    "2010": { "strikeRate": 130 },
    "2011": { "strikeRate": 100 }
  },
  "B Akhil": {
    "2008": { "strikeRate": 143.75 },
    "2009": { "strikeRate": 106.25 },
    "2011": { "strikeRate": 144.44444444444443 }
  },
  "AA Noffke": { "2008": { "strikeRate": 75 } },
  "P Kumar": {
    "2008": { "strikeRate": 112.00000000000001 },
    "2009": { "strikeRate": 141.30434782608697 },
    "2010": { "strikeRate": 50 },
    "2011": { "strikeRate": 81.81818181818183 },
    "2012": { "strikeRate": 109.375 },
    "2013": { "strikeRate": 114.6341463414634 },
    "2014": { "strikeRate": 50 },
    "2015": { "strikeRate": 68 },
    "2016": { "strikeRate": 88.88888888888889 },
    "2017": { "strikeRate": 88.88888888888889 }
  },
  "Z Khan": {
    "2008": { "strikeRate": 79.06976744186046 },
    "2009": { "strikeRate": 72.72727272727273 },
    "2010": { "strikeRate": 184.6153846153846 },
    "2011": { "strikeRate": 87.5 },
    "2012": { "strikeRate": 70.58823529411765 },
    "2014": { "strikeRate": 114.28571428571428 },
    "2016": { "strikeRate": 46.15384615384615 },
    "2017": { "strikeRate": 30.76923076923077 }
  },
  "SB Joshi": { "2008": { "strikeRate": 37.5 } },
  "PA Patel": {
    "2008": { "strikeRate": 95.87301587301587 },
    "2009": { "strikeRate": 108.3969465648855 },
    "2010": { "strikeRate": 86.74698795180723 },
    "2011": { "strikeRate": 106.87830687830689 },
    "2012": { "strikeRate": 116.86746987951808 },
    "2013": { "strikeRate": 112.64367816091954 },
    "2014": { "strikeRate": 107.32984293193716 },
    "2015": { "strikeRate": 132.94117647058823 },
    "2016": { "strikeRate": 109.93788819875776 },
    "2017": { "strikeRate": 128.24675324675326 }
  },
  "ML Hayden": {
    "2008": { "strikeRate": 140 },
    "2009": { "strikeRate": 139.85330073349633 },
    "2010": { "strikeRate": 117.28813559322033 }
  },
  "MEK Hussey": {
    "2008": { "strikeRate": 168 },
    "2010": { "strikeRate": 84.0909090909091 },
    "2011": { "strikeRate": 116.31205673758865 },
    "2012": { "strikeRate": 108.29875518672199 },
    "2013": { "strikeRate": 126.37931034482759 },
    "2014": { "strikeRate": 111.76470588235294 },
    "2015": { "strikeRate": 105.47945205479452 }
  },
  "MS Dhoni": {
    "2008": { "strikeRate": 129.7805642633229 },
    "2009": { "strikeRate": 122.96296296296296 },
    "2010": { "strikeRate": 133.48837209302326 },
    "2011": { "strikeRate": 158.70445344129556 },
    "2012": { "strikeRate": 126.14840989399295 },
    "2013": { "strikeRate": 154.6979865771812 },
    "2014": { "strikeRate": 143.7984496124031 },
    "2015": { "strikeRate": 120.3883495145631 },
    "2016": { "strikeRate": 129.0909090909091 },
    "2017": { "strikeRate": 111.11111111111111 }
  },
  "SK Raina": {
    "2008": { "strikeRate": 138.48684210526315 },
    "2009": { "strikeRate": 136.47798742138363 },
    "2010": { "strikeRate": 136.43410852713177 },
    "2011": { "strikeRate": 130.7462686567164 },
    "2012": { "strikeRate": 131.6417910447761 },
    "2013": { "strikeRate": 148.1081081081081 },
    "2014": { "strikeRate": 141.35135135135135 },
    "2015": { "strikeRate": 117.24137931034481 },
    "2016": { "strikeRate": 124.29906542056075 },
    "2017": { "strikeRate": 142.5806451612903 }
  },
  "JDP Oram": {
    "2008": { "strikeRate": 138.46153846153845 },
    "2009": { "strikeRate": 93.61702127659575 },
    "2011": { "strikeRate": 0 }
  },
  "S Badrinath": {
    "2008": { "strikeRate": 139.1304347826087 },
    "2009": { "strikeRate": 106.62650602409639 },
    "2010": { "strikeRate": 114.83870967741936 },
    "2011": { "strikeRate": 123.75 },
    "2012": { "strikeRate": 104.25531914893618 },
    "2013": { "strikeRate": 100.8130081300813 }
  },
  "K Goel": {
    "2008": { "strikeRate": 96.20253164556962 },
    "2009": { "strikeRate": 88.57142857142857 },
    "2010": { "strikeRate": 90 }
  },
  "JR Hopes": {
    "2008": { "strikeRate": 145.39473684210526 },
    "2011": { "strikeRate": 120.98765432098766 }
  },
  "KC Sangakkara": {
    "2008": { "strikeRate": 154.58937198067633 },
    "2009": { "strikeRate": 100 },
    "2010": { "strikeRate": 137.30769230769232 },
    "2011": { "strikeRate": 120.13422818791946 },
    "2012": { "strikeRate": 105.26315789473684 },
    "2013": { "strikeRate": 87.59124087591242 }
  },
  "Yuvraj Singh": {
    "2008": { "strikeRate": 156.54450261780104 },
    "2009": { "strikeRate": 107.25552050473186 },
    "2010": { "strikeRate": 125.72815533980584 },
    "2011": { "strikeRate": 127.5092936802974 },
    "2013": { "strikeRate": 123.3160621761658 },
    "2014": { "strikeRate": 130.55555555555557 },
    "2015": { "strikeRate": 115.34883720930233 },
    "2016": { "strikeRate": 128.96174863387978 },
    "2017": { "strikeRate": 134.04255319148936 }
  },
  "SM Katich": {
    "2008": { "strikeRate": 133.33333333333331 },
    "2009": { "strikeRate": 121.84873949579831 }
  },
  "IK Pathan": {
    "2008": { "strikeRate": 109.16666666666666 },
    "2009": { "strikeRate": 119.51219512195121 },
    "2010": { "strikeRate": 146.80851063829786 },
    "2011": { "strikeRate": 102.73972602739727 },
    "2012": { "strikeRate": 132.33082706766916 },
    "2013": { "strikeRate": 96.22641509433963 },
    "2014": { "strikeRate": 94.82758620689656 },
    "2016": { "strikeRate": 78.57142857142857 },
    "2017": { "strikeRate": 66.66666666666666 }
  },
  "T Kohli": { "2008": { "strikeRate": 62.5 }, "2009": { "strikeRate": 25 } },
  "YK Pathan": {
    "2008": { "strikeRate": 171.93675889328063 },
    "2009": { "strikeRate": 135.9375 },
    "2010": { "strikeRate": 158.57142857142856 },
    "2011": { "strikeRate": 138.04878048780486 },
    "2012": { "strikeRate": 108.37988826815644 },
    "2013": { "strikeRate": 134.41295546558706 },
    "2014": { "strikeRate": 159.52380952380955 },
    "2015": { "strikeRate": 128.39506172839506 },
    "2016": { "strikeRate": 141.015625 },
    "2017": { "strikeRate": 116.26016260162602 }
  },
  "SR Watson": {
    "2008": { "strikeRate": 146.58385093167703 },
    "2010": { "strikeRate": 158.1196581196581 },
    "2011": { "strikeRate": 128.90625 },
    "2012": { "strikeRate": 149.12280701754386 },
    "2013": { "strikeRate": 138.1679389312977 },
    "2014": { "strikeRate": 120 },
    "2015": { "strikeRate": 128.51851851851853 },
    "2016": { "strikeRate": 132.5925925925926 },
    "2017": { "strikeRate": 88.75 }
  },
  "M Kaif": {
    "2008": { "strikeRate": 100 },
    "2010": { "strikeRate": 90.32258064516128 },
    "2011": { "strikeRate": 117.14285714285715 },
    "2012": { "strikeRate": 87.5 }
  },
  "DS Lehmann": { "2008": { "strikeRate": 94.73684210526315 } },
  "RA Jadeja": {
    "2008": { "strikeRate": 125 },
    "2009": { "strikeRate": 106.8840579710145 },
    "2011": { "strikeRate": 120.94017094017093 },
    "2012": { "strikeRate": 124.83660130718954 },
    "2013": { "strikeRate": 144.6043165467626 },
    "2014": { "strikeRate": 129.20353982300884 },
    "2015": { "strikeRate": 103.125 },
    "2016": { "strikeRate": 101.05820105820106 },
    "2017": { "strikeRate": 133.89830508474577 }
  },
  "M Rawat": {
    "2008": { "strikeRate": 87.17948717948718 },
    "2009": { "strikeRate": 80 },
    "2013": { "strikeRate": 45.45454545454545 }
  },
  "D Salunkhe": { "2008": { "strikeRate": 137.5 } },
  "SK Warne": {
    "2008": { "strikeRate": 116.66666666666667 },
    "2009": { "strikeRate": 91.52542372881356 },
    "2010": { "strikeRate": 47.61904761904761 },
    "2011": { "strikeRate": 50 }
  },
  "SK Trivedi": {
    "2008": { "strikeRate": 41.66666666666667 },
    "2009": { "strikeRate": 47.368421052631575 },
    "2010": { "strikeRate": 133.33333333333331 },
    "2011": { "strikeRate": 0 },
    "2012": { "strikeRate": 83.33333333333334 },
    "2013": { "strikeRate": 42.857142857142854 }
  },
  "G Gambhir": {
    "2008": { "strikeRate": 135.53299492385787 },
    "2009": { "strikeRate": 101.0600706713781 },
    "2010": { "strikeRate": 124.2152466367713 },
    "2011": { "strikeRate": 113.85542168674698 },
    "2012": { "strikeRate": 137.52913752913753 },
    "2013": { "strikeRate": 114.68926553672316 },
    "2014": { "strikeRate": 111.29568106312293 },
    "2015": { "strikeRate": 113.54166666666667 },
    "2016": { "strikeRate": 118.16037735849056 },
    "2017": { "strikeRate": 122.96296296296296 }
  },
  "V Sehwag": {
    "2008": { "strikeRate": 177.29257641921396 },
    "2009": { "strikeRate": 135.6164383561644 },
    "2010": { "strikeRate": 156.8281938325991 },
    "2011": { "strikeRate": 171.65991902834008 },
    "2012": { "strikeRate": 156.15141955835963 },
    "2013": { "strikeRate": 120.9016393442623 },
    "2014": { "strikeRate": 136.22754491017963 },
    "2015": { "strikeRate": 111.23595505617978 }
  },
  "S Dhawan": {
    "2008": { "strikeRate": 110.3896103896104 },
    "2009": { "strikeRate": 86.95652173913044 },
    "2010": { "strikeRate": 106.11111111111111 },
    "2011": { "strikeRate": 126.98412698412697 },
    "2012": { "strikeRate": 127.00892857142858 },
    "2013": { "strikeRate": 118.70229007633588 },
    "2014": { "strikeRate": 113.55421686746988 },
    "2015": { "strikeRate": 120.47781569965869 },
    "2016": { "strikeRate": 114.3835616438356 },
    "2017": { "strikeRate": 125.06527415143603 }
  },
  "L Ronchi": { "2008": { "strikeRate": 100 }, "2009": { "strikeRate": 0 } },
  "ST Jayasuriya": {
    "2008": { "strikeRate": 154.35435435435437 },
    "2009": { "strikeRate": 107.8048780487805 },
    "2010": { "strikeRate": 94.28571428571428 }
  },
  "DJ Thornely": { "2008": { "strikeRate": 72.22222222222221 } },
  "RV Uthappa": {
    "2008": { "strikeRate": 109.96563573883162 },
    "2009": { "strikeRate": 98.87005649717514 },
    "2010": { "strikeRate": 166.96428571428572 },
    "2011": { "strikeRate": 122.79069767441861 },
    "2012": { "strikeRate": 113.4453781512605 },
    "2013": { "strikeRate": 112.72727272727272 },
    "2014": { "strikeRate": 136.08247422680412 },
    "2015": { "strikeRate": 126.82926829268293 },
    "2016": { "strikeRate": 131.33333333333331 },
    "2017": { "strikeRate": 162.34309623430963 }
  },
  "PR Shah": {
    "2008": { "strikeRate": 89.47368421052632 },
    "2009": { "strikeRate": 98.14814814814815 },
    "2011": { "strikeRate": 100 }
  },
  "AM Nayar": {
    "2008": { "strikeRate": 145.07042253521126 },
    "2009": { "strikeRate": 124.51612903225806 },
    "2010": { "strikeRate": 113.72549019607843 },
    "2011": { "strikeRate": 91.04477611940298 },
    "2012": { "strikeRate": 91.83673469387756 },
    "2013": { "strikeRate": 89.1891891891892 },
    "2014": { "strikeRate": 86 }
  },
  "SM Pollock": { "2008": { "strikeRate": 126.72413793103448 } },
  "Harbhajan Singh": {
    "2008": { "strikeRate": 176.47058823529412 },
    "2009": { "strikeRate": 147.36842105263156 },
    "2010": { "strikeRate": 164.0625 },
    "2011": { "strikeRate": 139.1891891891892 },
    "2012": { "strikeRate": 131.70731707317074 },
    "2013": { "strikeRate": 141.46341463414635 },
    "2014": { "strikeRate": 107.6923076923077 },
    "2015": { "strikeRate": 144.44444444444443 },
    "2016": { "strikeRate": 101.0989010989011 },
    "2017": { "strikeRate": 94.11764705882352 }
  },
  "S Chanderpaul": { "2008": { "strikeRate": 75.75757575757575 } },
  "LRPL Taylor": {
    "2008": { "strikeRate": 175.2941176470588 },
    "2009": { "strikeRate": 132.70142180094786 },
    "2010": { "strikeRate": 114.28571428571428 },
    "2011": { "strikeRate": 114.55696202531647 },
    "2012": { "strikeRate": 111.2994350282486 },
    "2013": { "strikeRate": 81.81818181818183 },
    "2014": { "strikeRate": 95.16129032258065 }
  },
  "AC Gilchrist": {
    "2008": { "strikeRate": 132.9268292682927 },
    "2009": { "strikeRate": 146.88427299703264 },
    "2010": { "strikeRate": 144.5 },
    "2011": { "strikeRate": 123.94822006472492 },
    "2012": { "strikeRate": 117.00680272108843 },
    "2013": { "strikeRate": 125.64102564102564 }
  },
  "Y Venugopal Rao": {
    "2008": { "strikeRate": 132.7188940092166 },
    "2009": { "strikeRate": 105.08474576271188 },
    "2010": { "strikeRate": 77.27272727272727 },
    "2011": { "strikeRate": 115.06849315068493 },
    "2012": { "strikeRate": 102.32558139534885 },
    "2014": { "strikeRate": 109.23076923076923 }
  },
  "VVS Laxman": {
    "2008": { "strikeRate": 115.67164179104476 },
    "2009": { "strikeRate": 57.57575757575758 },
    "2010": { "strikeRate": 103.2258064516129 },
    "2011": { "strikeRate": 104.76190476190477 }
  },
  "A Symonds": {
    "2008": { "strikeRate": 145.04504504504504 },
    "2009": { "strikeRate": 145.61403508771932 },
    "2010": { "strikeRate": 120.50561797752808 },
    "2011": { "strikeRate": 94.4055944055944 }
  },
  "RG Sharma": {
    "2008": { "strikeRate": 146.3768115942029 },
    "2009": { "strikeRate": 112.07430340557276 },
    "2010": { "strikeRate": 130.32258064516128 },
    "2011": { "strikeRate": 122.36842105263158 },
    "2012": { "strikeRate": 123.71428571428571 },
    "2013": { "strikeRate": 129.63855421686748 },
    "2014": { "strikeRate": 127.0358306188925 },
    "2015": { "strikeRate": 142.18289085545723 },
    "2016": { "strikeRate": 131.4516129032258 },
    "2017": { "strikeRate": 119.78417266187051 }
  },
  "SB Styris": {
    "2008": { "strikeRate": 90.32258064516128 },
    "2009": { "strikeRate": 175 },
    "2011": { "strikeRate": 250 }
  },
  "AS Yadav": { "2008": { "strikeRate": 122.50000000000001 } },
  "SB Bangar": {
    "2008": { "strikeRate": 95.91836734693877 },
    "2009": { "strikeRate": 22.22222222222222 }
  },
  "WPUJC Vaas": {
    "2008": { "strikeRate": 116.66666666666667 },
    "2009": { "strikeRate": 142.85714285714286 },
    "2010": { "strikeRate": 88.23529411764706 }
  },
  "RP Singh": {
    "2008": { "strikeRate": 108 },
    "2009": { "strikeRate": 47.05882352941176 },
    "2010": { "strikeRate": 45 },
    "2011": { "strikeRate": 50 },
    "2012": { "strikeRate": 50 }
  },
  "WP Saha": {
    "2008": { "strikeRate": 133.61344537815125 },
    "2009": { "strikeRate": 175.609756097561 },
    "2010": { "strikeRate": 126.41509433962264 },
    "2011": { "strikeRate": 101.49253731343283 },
    "2012": { "strikeRate": 42.857142857142854 },
    "2013": { "strikeRate": 122.80701754385966 },
    "2014": { "strikeRate": 141.9607843137255 },
    "2015": { "strikeRate": 121.46341463414633 },
    "2016": { "strikeRate": 126.16822429906543 },
    "2017": { "strikeRate": 120.61855670103093 }
  },
  "LR Shukla": {
    "2008": { "strikeRate": 128.3464566929134 },
    "2009": { "strikeRate": 96.51162790697676 },
    "2010": { "strikeRate": 133.33333333333331 },
    "2011": { "strikeRate": 140 },
    "2012": { "strikeRate": 131.57894736842107 },
    "2013": { "strikeRate": 23.076923076923077 },
    "2014": { "strikeRate": 81.57894736842105 }
  },
  "DPMD Jayawardene": {
    "2008": { "strikeRate": 129.71014492753622 },
    "2009": { "strikeRate": 127.32558139534885 },
    "2010": { "strikeRate": 142.62820512820514 },
    "2011": { "strikeRate": 109.9264705882353 },
    "2012": { "strikeRate": 109.47712418300655 },
    "2013": { "strikeRate": 102.79503105590062 }
  },
  "S Sohal": {
    "2008": { "strikeRate": 50 },
    "2009": { "strikeRate": 112.74509803921569 },
    "2011": { "strikeRate": 123.88059701492537 }
  },
  "B Lee": {
    "2008": { "strikeRate": 121.42857142857142 },
    "2009": { "strikeRate": 80 },
    "2010": { "strikeRate": 100 },
    "2011": { "strikeRate": 55.55555555555556 },
    "2012": { "strikeRate": 200 },
    "2013": { "strikeRate": 175 }
  },
  "PP Chawla": {
    "2008": { "strikeRate": 147.54098360655738 },
    "2009": { "strikeRate": 79.48717948717949 },
    "2010": { "strikeRate": 98.4126984126984 },
    "2011": { "strikeRate": 87.27272727272727 },
    "2012": { "strikeRate": 120.45454545454545 },
    "2013": { "strikeRate": 106.66666666666667 },
    "2014": { "strikeRate": 155 },
    "2015": { "strikeRate": 110.20408163265304 },
    "2016": { "strikeRate": 103.84615384615385 },
    "2017": { "strikeRate": 33.33333333333333 }
  },
  "WA Mota": {
    "2008": { "strikeRate": 92.85714285714286 },
    "2009": { "strikeRate": 62.5 }
  },
  "Kamran Akmal": { "2008": { "strikeRate": 164.1025641025641 } },
  "Shahid Afridi": { "2008": { "strikeRate": 176.08695652173913 } },
  "DJ Bravo": {
    "2008": { "strikeRate": 129.92700729927006 },
    "2009": { "strikeRate": 103.3175355450237 },
    "2010": { "strikeRate": 115.09433962264151 },
    "2011": { "strikeRate": 183.33333333333331 },
    "2012": { "strikeRate": 136.90036900369006 },
    "2013": { "strikeRate": 108.03571428571428 },
    "2014": { "strikeRate": 266.66666666666663 },
    "2015": { "strikeRate": 129.13907284768212 },
    "2016": { "strikeRate": 112.5 }
  },
  "MA Khote": { "2008": { "strikeRate": 109.09090909090908 } },
  "A Nehra": {
    "2008": { "strikeRate": 23.076923076923077 },
    "2009": { "strikeRate": 100 },
    "2010": { "strikeRate": 114.99999999999999 },
    "2012": { "strikeRate": 84.61538461538461 },
    "2013": { "strikeRate": 12.5 },
    "2015": { "strikeRate": 14.285714285714285 },
    "2016": { "strikeRate": 100 }
  },
  "GC Smith": {
    "2008": { "strikeRate": 117.6 },
    "2009": { "strikeRate": 95.4954954954955 },
    "2010": { "strikeRate": 110.00000000000001 },
    "2011": { "strikeRate": 77.77777777777779 }
  },
  "Pankaj Singh": {
    "2008": { "strikeRate": 62.5 },
    "2009": { "strikeRate": 50 },
    "2010": { "strikeRate": 50 }
  },
  "RR Sarwan": { "2008": { "strikeRate": 93.58974358974359 } },
  "S Sreesanth": {
    "2008": { "strikeRate": 0 },
    "2009": { "strikeRate": 26.31578947368421 },
    "2010": { "strikeRate": 122.72727272727273 },
    "2011": { "strikeRate": 11.11111111111111 },
    "2013": { "strikeRate": 25 }
  },
  "VRV Singh": { "2008": { "strikeRate": 133.33333333333331 } },
  "SS Tiwary": {
    "2008": { "strikeRate": 130 },
    "2009": { "strikeRate": 108.33333333333333 },
    "2010": { "strikeRate": 131.34796238244516 },
    "2011": { "strikeRate": 95.40816326530613 },
    "2012": { "strikeRate": 110.40462427745665 },
    "2013": { "strikeRate": 96.46017699115043 },
    "2015": { "strikeRate": 131.32530120481925 },
    "2016": { "strikeRate": 114.09395973154362 },
    "2017": { "strikeRate": 113.04347826086956 }
  },
  "DS Kulkarni": {
    "2008": { "strikeRate": 11.76470588235294 },
    "2009": { "strikeRate": 50 },
    "2011": { "strikeRate": 50 },
    "2012": { "strikeRate": 200 },
    "2014": { "strikeRate": 129.62962962962962 },
    "2015": { "strikeRate": 33.33333333333333 },
    "2016": { "strikeRate": 168.75 },
    "2017": { "strikeRate": 50 }
  },
  "R Vinay Kumar": {
    "2008": { "strikeRate": 89.28571428571429 },
    "2009": { "strikeRate": 106.81818181818181 },
    "2010": { "strikeRate": 77.14285714285715 },
    "2011": { "strikeRate": 104.16666666666667 },
    "2012": { "strikeRate": 104.61538461538463 },
    "2013": { "strikeRate": 159.0909090909091 },
    "2014": { "strikeRate": 57.14285714285714 },
    "2015": { "strikeRate": 0 },
    "2016": { "strikeRate": 108.33333333333333 }
  },
  "AB Agarkar": {
    "2008": { "strikeRate": 110.20408163265304 },
    "2009": { "strikeRate": 113.79310344827587 },
    "2010": { "strikeRate": 133.33333333333331 },
    "2011": { "strikeRate": 100 },
    "2013": { "strikeRate": 75 }
  },
  "M Kartik": {
    "2008": { "strikeRate": 107.14285714285714 },
    "2009": { "strikeRate": 105 },
    "2010": { "strikeRate": 100 },
    "2011": { "strikeRate": 80 },
    "2012": { "strikeRate": 123.80952380952381 },
    "2013": { "strikeRate": 66.66666666666666 }
  },
  "I Sharma": {
    "2008": { "strikeRate": 100 },
    "2009": { "strikeRate": 123.07692307692308 },
    "2010": { "strikeRate": 35.294117647058826 },
    "2011": { "strikeRate": 80 },
    "2017": { "strikeRate": 61.53846153846154 }
  },
  "AM Rahane": {
    "2008": { "strikeRate": 21.052631578947366 },
    "2009": { "strikeRate": 112.5 },
    "2011": { "strikeRate": 121.21212121212122 },
    "2012": { "strikeRate": 125 },
    "2013": { "strikeRate": 103.38983050847457 },
    "2014": { "strikeRate": 113.75838926174498 },
    "2015": { "strikeRate": 127.65957446808511 },
    "2016": { "strikeRate": 124.03100775193798 },
    "2017": { "strikeRate": 116.46341463414633 }
  },
  "Shoaib Malik": { "2008": { "strikeRate": 106.12244897959184 } },
  "MK Tiwary": {
    "2008": { "strikeRate": 119.54022988505749 },
    "2009": { "strikeRate": 69.23076923076923 },
    "2010": { "strikeRate": 123.4375 },
    "2011": { "strikeRate": 106.84523809523809 },
    "2012": { "strikeRate": 103.58565737051792 },
    "2013": { "strikeRate": 102.8169014084507 },
    "2014": { "strikeRate": 123.57723577235772 },
    "2015": { "strikeRate": 98.27586206896551 },
    "2017": { "strikeRate": 133.88429752066116 }
  },
  "KD Karthik": {
    "2008": { "strikeRate": 134.25925925925927 },
    "2009": { "strikeRate": 128.57142857142858 },
    "2010": { "strikeRate": 114.87603305785123 },
    "2011": { "strikeRate": 125.33333333333334 },
    "2012": { "strikeRate": 109.6774193548387 },
    "2013": { "strikeRate": 120.85308056872037 },
    "2014": { "strikeRate": 124.52107279693487 },
    "2015": { "strikeRate": 117.5 },
    "2016": { "strikeRate": 122.71062271062272 },
    "2017": { "strikeRate": 134.7014925373134 }
  },
  "R Bhatia": {
    "2008": { "strikeRate": 121.42857142857142 },
    "2009": { "strikeRate": 44.44444444444444 },
    "2010": { "strikeRate": 141.1764705882353 },
    "2011": { "strikeRate": 108.69565217391303 },
    "2012": { "strikeRate": 116.66666666666667 },
    "2013": { "strikeRate": 122.22222222222223 },
    "2014": { "strikeRate": 121.81818181818183 },
    "2015": { "strikeRate": 0 },
    "2016": { "strikeRate": 170 },
    "2017": { "strikeRate": 94.11764705882352 }
  },
  "MF Maharoof": {
    "2008": { "strikeRate": 158.22784810126583 },
    "2009": { "strikeRate": 100 },
    "2010": { "strikeRate": 129.16666666666669 }
  },
  "VY Mahesh": { "2008": { "strikeRate": 53.57142857142857 } },
  "TM Srivastava": {
    "2008": { "strikeRate": 80 },
    "2009": { "strikeRate": 0 }
  },
  "B Chipli": {
    "2008": { "strikeRate": 66.66666666666666 },
    "2011": { "strikeRate": 120.34883720930232 },
    "2012": { "strikeRate": 105.71428571428572 },
    "2013": { "strikeRate": 84.21052631578947 }
  },
  "DW Steyn": {
    "2008": { "strikeRate": 40 },
    "2009": { "strikeRate": 0 },
    "2010": { "strikeRate": 76.47058823529412 },
    "2011": { "strikeRate": 97.2972972972973 },
    "2012": { "strikeRate": 90.47619047619048 },
    "2013": { "strikeRate": 143.24324324324326 },
    "2014": { "strikeRate": 84.61538461538461 },
    "2015": { "strikeRate": 153.84615384615387 },
    "2016": { "strikeRate": 50 }
  },
  "DB Das": {
    "2008": { "strikeRate": 108.42105263157895 },
    "2012": { "strikeRate": 131.25 },
    "2013": { "strikeRate": 98.68421052631578 }
  },
  "MK Pandey": {
    "2008": { "strikeRate": 30 },
    "2009": { "strikeRate": 140 },
    "2010": { "strikeRate": 106.86695278969958 },
    "2011": { "strikeRate": 105.5793991416309 },
    "2012": { "strikeRate": 124.34782608695652 },
    "2013": { "strikeRate": 97.84172661870504 },
    "2014": { "strikeRate": 113.9275766016713 },
    "2015": { "strikeRate": 120.32085561497325 },
    "2016": { "strikeRate": 130.5263157894737 },
    "2017": { "strikeRate": 125.71428571428571 }
  },
  "HH Gibbs": {
    "2008": { "strikeRate": 105.0314465408805 },
    "2009": { "strikeRate": 107.84883720930232 },
    "2010": { "strikeRate": 109.87654320987654 },
    "2012": { "strikeRate": 89.01098901098901 }
  },
  "DNT Zoysa": { "2008": { "strikeRate": 122.22222222222223 } },
  "D Kalyankrishna": { "2008": { "strikeRate": 37.5 } },
  "SE Marsh": {
    "2008": { "strikeRate": 136.28318584070794 },
    "2010": { "strikeRate": 125.64102564102564 },
    "2011": { "strikeRate": 144.41260744985672 },
    "2012": { "strikeRate": 116.66666666666667 },
    "2013": { "strikeRate": 117.1875 },
    "2014": { "strikeRate": 129.62962962962962 },
    "2015": { "strikeRate": 143.07692307692307 },
    "2016": { "strikeRate": 118.65671641791045 },
    "2017": { "strikeRate": 133.33333333333331 }
  },
  "SA Asnodkar": {
    "2008": { "strikeRate": 129.04564315352698 },
    "2009": { "strikeRate": 100 },
    "2010": { "strikeRate": 125 },
    "2011": { "strikeRate": 100 }
  },
  "Sohail Tanvir": { "2008": { "strikeRate": 116.12903225806453 } },
  "Salman Butt": { "2008": { "strikeRate": 112.20930232558139 } },
  "BJ Hodge": {
    "2008": { "strikeRate": 66.66666666666666 },
    "2009": { "strikeRate": 115.14195583596214 },
    "2010": { "strikeRate": 104.21052631578947 },
    "2011": { "strikeRate": 116.3265306122449 },
    "2012": { "strikeRate": 136.11111111111111 },
    "2013": { "strikeRate": 130.80357142857142 },
    "2014": { "strikeRate": 136.48648648648648 }
  },
  "Umar Gul": { "2008": { "strikeRate": 205.26315789473685 } },
  "AB Dinda": {
    "2008": { "strikeRate": 50 },
    "2009": { "strikeRate": 66.66666666666666 },
    "2010": { "strikeRate": 0 },
    "2011": { "strikeRate": 0 },
    "2012": { "strikeRate": 40 },
    "2013": { "strikeRate": 81.81818181818183 },
    "2014": { "strikeRate": 30.76923076923077 },
    "2017": { "strikeRate": 87.5 }
  },
  "SP Fleming": { "2008": { "strikeRate": 114.61988304093566 } },
  "S Vidyut": { "2008": { "strikeRate": 126.08695652173914 } },
  "JA Morkel": {
    "2008": { "strikeRate": 143.45238095238096 },
    "2009": { "strikeRate": 132.87671232876713 },
    "2010": { "strikeRate": 147.40740740740742 },
    "2011": { "strikeRate": 127.77777777777777 },
    "2012": { "strikeRate": 150.70422535211267 },
    "2013": { "strikeRate": 124.32432432432432 },
    "2014": { "strikeRate": 109.75609756097562 },
    "2015": { "strikeRate": 122.85714285714286 },
    "2016": { "strikeRate": 177.77777777777777 }
  },
  "AB de Villiers": {
    "2008": { "strikeRate": 95 },
    "2009": { "strikeRate": 129.52646239554318 },
    "2010": { "strikeRate": 90.2439024390244 },
    "2011": { "strikeRate": 125.80645161290323 },
    "2012": { "strikeRate": 157.14285714285714 },
    "2013": { "strikeRate": 165.04424778761063 },
    "2014": { "strikeRate": 154.90196078431373 },
    "2015": { "strikeRate": 169.86754966887418 },
    "2016": { "strikeRate": 165.5421686746988 },
    "2017": { "strikeRate": 126.3157894736842 }
  },
  "LPC Silva": { "2008": { "strikeRate": 148.14814814814815 } },
  "DB Ravi Teja": {
    "2008": { "strikeRate": 128.23529411764707 },
    "2009": { "strikeRate": 91.54929577464789 },
    "2011": { "strikeRate": 124.48979591836735 },
    "2012": { "strikeRate": 100 },
    "2013": { "strikeRate": 77.77777777777779 }
  },
  "Misbah-ul-Haq": { "2008": { "strikeRate": 142.6829268292683 } },
  "YV Takawale": {
    "2008": { "strikeRate": 101.44927536231884 },
    "2009": { "strikeRate": 81.81818181818183 },
    "2014": { "strikeRate": 113.04347826086956 }
  },
  "RR Raje": {
    "2008": { "strikeRate": 88.88888888888889 },
    "2009": { "strikeRate": 133.33333333333331 }
  },
  "PJ Sangwan": {
    "2008": { "strikeRate": 40 },
    "2009": { "strikeRate": 60 },
    "2010": { "strikeRate": 66.66666666666666 },
    "2013": { "strikeRate": 200 },
    "2017": { "strikeRate": 50 }
  },
  "Mohammad Asif": { "2008": { "strikeRate": 50 } },
  "GD McGrath": { "2008": { "strikeRate": 80 } },
  "Joginder Sharma": {
    "2008": { "strikeRate": 145.45454545454547 },
    "2009": { "strikeRate": 111.11111111111111 },
    "2011": { "strikeRate": 0 }
  },
  "MS Gony": {
    "2008": { "strikeRate": 140 },
    "2009": { "strikeRate": 185.71428571428572 },
    "2010": { "strikeRate": 28.57142857142857 },
    "2011": { "strikeRate": 0 },
    "2012": { "strikeRate": 50 },
    "2013": { "strikeRate": 166.66666666666669 }
  },
  "M Muralitharan": {
    "2008": { "strikeRate": 0 },
    "2009": { "strikeRate": 100 },
    "2010": { "strikeRate": 50 },
    "2011": { "strikeRate": 62.5 },
    "2012": { "strikeRate": 66.66666666666666 }
  },
  "M Ntini": { "2008": { "strikeRate": 57.89473684210527 } },
  "DT Patil": { "2008": { "strikeRate": 100 } },
  "A Kumble": {
    "2008": { "strikeRate": 76.47058823529412 },
    "2009": { "strikeRate": 80 },
    "2010": { "strikeRate": 50 }
  },
  "S Anirudha": {
    "2008": { "strikeRate": 12.5 },
    "2010": { "strikeRate": 157.89473684210526 },
    "2011": { "strikeRate": 106.41025641025641 },
    "2012": { "strikeRate": 211.11111111111111 },
    "2013": { "strikeRate": 0 },
    "2014": { "strikeRate": 60 }
  },
  "MM Patel": {
    "2008": { "strikeRate": 0 },
    "2009": { "strikeRate": 126.92307692307692 },
    "2010": { "strikeRate": 80 },
    "2011": { "strikeRate": 0 },
    "2012": { "strikeRate": 28.57142857142857 },
    "2017": { "strikeRate": 0 }
  },
  "CK Kapugedera": { "2008": { "strikeRate": 66.66666666666666 } },
  "A Chopra": {
    "2008": { "strikeRate": 76.36363636363637 },
    "2009": { "strikeRate": 55.00000000000001 }
  },
  "T Taibu": { "2008": { "strikeRate": 119.23076923076923 } },
  "J Arunkumar": { "2008": { "strikeRate": 95.83333333333334 } },
  "PP Ojha": {
    "2008": { "strikeRate": 50 },
    "2009": { "strikeRate": 14.285714285714285 },
    "2010": { "strikeRate": 37.5 },
    "2012": { "strikeRate": 28.57142857142857 },
    "2013": { "strikeRate": 50 },
    "2014": { "strikeRate": 50 }
  },
  "SP Goswami": {
    "2008": { "strikeRate": 95.34883720930233 },
    "2009": { "strikeRate": 82.8125 },
    "2010": { "strikeRate": 80 },
    "2011": { "strikeRate": 93.54838709677419 },
    "2012": { "strikeRate": 100 }
  },
  "SR Tendulkar": {
    "2008": { "strikeRate": 99.47089947089947 },
    "2009": { "strikeRate": 115.55555555555554 },
    "2010": { "strikeRate": 126.38036809815951 },
    "2011": { "strikeRate": 108.21917808219179 },
    "2012": { "strikeRate": 109.09090909090908 },
    "2013": { "strikeRate": 118.10699588477367 }
  },
  "U Kaul": { "2008": { "strikeRate": 0 } },
  "TM Dilshan": {
    "2008": { "strikeRate": 131.64556962025316 },
    "2009": { "strikeRate": 117.08683473389357 },
    "2010": { "strikeRate": 80 },
    "2011": { "strikeRate": 122.16216216216216 },
    "2012": { "strikeRate": 104.01459854014598 },
    "2013": { "strikeRate": 78.35051546391753 }
  },
  "A Mishra": {
    "2008": { "strikeRate": 88.09523809523809 },
    "2009": { "strikeRate": 130 },
    "2010": { "strikeRate": 72.22222222222221 },
    "2011": { "strikeRate": 130.76923076923077 },
    "2012": { "strikeRate": 76.19047619047619 },
    "2013": { "strikeRate": 86.40776699029125 },
    "2014": { "strikeRate": 57.14285714285714 },
    "2015": { "strikeRate": 61.53846153846154 },
    "2016": { "strikeRate": 28.57142857142857 },
    "2017": { "strikeRate": 87.5 }
  },
  "AD Mascarenhas": {
    "2008": { "strikeRate": 112.5 },
    "2009": { "strikeRate": 100 },
    "2010": { "strikeRate": 109.09090909090908 },
    "2012": { "strikeRate": 87.5 },
    "2013": { "strikeRate": 100 }
  },
  "Niraj Patel": {
    "2008": { "strikeRate": 124.09638554216869 },
    "2009": { "strikeRate": 43.90243902439025 }
  },
  "LA Pomersbach": {
    "2008": { "strikeRate": 150.4950495049505 },
    "2009": { "strikeRate": 83.6734693877551 },
    "2011": { "strikeRate": 124.39024390243902 },
    "2013": { "strikeRate": 96.66666666666667 }
  },
  "Iqbal Abdulla": {
    "2008": { "strikeRate": 50 },
    "2010": { "strikeRate": 0 },
    "2011": { "strikeRate": 125 },
    "2012": { "strikeRate": 66.66666666666666 },
    "2013": { "strikeRate": 57.14285714285714 },
    "2015": { "strikeRate": 100 },
    "2016": { "strikeRate": 137.03703703703704 },
    "2017": { "strikeRate": 71.42857142857143 }
  },
  "Younis Khan": { "2008": { "strikeRate": 42.857142857142854 } },
  "PM Sarvesh Kumar": { "2008": { "strikeRate": 50 } },
  "DP Vijaykumar": { "2008": { "strikeRate": 100 } },
  "Shoaib Akhtar": { "2008": { "strikeRate": 25 } },
  "Abdur Razzak": { "2008": { "strikeRate": 0 } },
  "H Das": { "2008": { "strikeRate": 40 } },
  "DR Smith": {
    "2008": { "strikeRate": 109.75609756097562 },
    "2009": { "strikeRate": 160.44776119402985 },
    "2010": { "strikeRate": 88 },
    "2012": { "strikeRate": 153.921568627451 },
    "2013": { "strikeRate": 119.0883190883191 },
    "2014": { "strikeRate": 133.1764705882353 },
    "2015": { "strikeRate": 117.00879765395895 },
    "2016": { "strikeRate": 143.36283185840708 },
    "2017": { "strikeRate": 151.26582278481013 }
  },
  "SD Chitnis": {
    "2008": { "strikeRate": 180 },
    "2009": { "strikeRate": 66.66666666666666 },
    "2011": { "strikeRate": 100 },
    "2012": { "strikeRate": 103.125 }
  },
  "CRD Fernando": {
    "2008": { "strikeRate": 200 },
    "2010": { "strikeRate": 100 }
  },
  "VS Yeligati": { "2008": { "strikeRate": 100 } },
  "L Balaji": {
    "2008": { "strikeRate": 0 },
    "2009": { "strikeRate": 40 },
    "2010": { "strikeRate": 90 },
    "2011": { "strikeRate": 200 },
    "2013": { "strikeRate": 90 },
    "2014": { "strikeRate": 33.33333333333333 }
  },
  "A Mukund": {
    "2008": { "strikeRate": 0 },
    "2013": { "strikeRate": 86.36363636363636 }
  },
  "RR Powar": {
    "2008": { "strikeRate": 133.33333333333331 },
    "2009": { "strikeRate": 104.54545454545455 },
    "2010": { "strikeRate": 62.5 },
    "2011": { "strikeRate": 84.61538461538461 }
  },
  "JP Duminy": {
    "2009": { "strikeRate": 111.37724550898203 },
    "2010": { "strikeRate": 117.16417910447761 },
    "2011": { "strikeRate": 116.47727272727273 },
    "2012": { "strikeRate": 125.12820512820512 },
    "2014": { "strikeRate": 131.83279742765274 },
    "2015": { "strikeRate": 126.60550458715596 },
    "2016": { "strikeRate": 121.656050955414 }
  },
  "A Flintoff": { "2009": { "strikeRate": 108.77192982456141 } },
  "T Thushara": {
    "2009": { "strikeRate": 25 },
    "2010": { "strikeRate": 90.9090909090909 }
  },
  "JD Ryder": {
    "2009": { "strikeRate": 114.28571428571428 },
    "2011": { "strikeRate": 145.273631840796 },
    "2012": { "strikeRate": 118.5185185185185 }
  },
  "KP Pietersen": {
    "2009": { "strikeRate": 104.49438202247192 },
    "2010": { "strikeRate": 148.42767295597483 },
    "2012": { "strikeRate": 145.23809523809524 },
    "2014": { "strikeRate": 123.01255230125523 },
    "2016": { "strikeRate": 119.67213114754098 }
  },
  "T Henderson": { "2009": { "strikeRate": 68.75 } },
  "Kamran Khan": { "2009": { "strikeRate": 60 } },
  "RS Bopara": {
    "2009": { "strikeRate": 111.29032258064515 },
    "2010": { "strikeRate": 111.21076233183858 },
    "2015": { "strikeRate": 119.83471074380165 }
  },
  "CH Gayle": {
    "2009": { "strikeRate": 115.72327044025157 },
    "2010": { "strikeRate": 148.2233502538071 },
    "2011": { "strikeRate": 177.77777777777777 },
    "2012": { "strikeRate": 155.29661016949152 },
    "2013": { "strikeRate": 148.7603305785124 },
    "2014": { "strikeRate": 104.25531914893618 },
    "2015": { "strikeRate": 136.76880222841226 },
    "2016": { "strikeRate": 142.76729559748426 },
    "2017": { "strikeRate": 116.27906976744187 }
  },
  "MC Henriques": {
    "2009": { "strikeRate": 95 },
    "2010": { "strikeRate": 220.00000000000003 },
    "2013": { "strikeRate": 129.92125984251967 },
    "2014": { "strikeRate": 64.28571428571429 },
    "2015": { "strikeRate": 132.87037037037038 },
    "2016": { "strikeRate": 112.34567901234568 },
    "2017": { "strikeRate": 135.1219512195122 }
  },
  "R Bishnoi": { "2009": { "strikeRate": 111.76470588235294 } },
  "FH Edwards": { "2009": { "strikeRate": 80 } },
  "KV Sharma": {
    "2009": { "strikeRate": 33.33333333333333 },
    "2013": { "strikeRate": 95.50561797752809 },
    "2014": { "strikeRate": 140 },
    "2015": { "strikeRate": 119.54022988505749 },
    "2016": { "strikeRate": 105.88235294117648 },
    "2017": { "strikeRate": 116.66666666666667 }
  },
  "PC Valthaty": {
    "2009": { "strikeRate": 50 },
    "2011": { "strikeRate": 131.90883190883193 },
    "2012": { "strikeRate": 57.692307692307686 },
    "2013": { "strikeRate": 35.294117647058826 }
  },
  "RJ Quiney": { "2009": { "strikeRate": 98.09523809523809 } },
  "AS Raut": {
    "2009": { "strikeRate": 120 },
    "2010": { "strikeRate": 116.66666666666667 },
    "2011": { "strikeRate": 101.69491525423729 }
  },
  "Yashpal Singh": { "2009": { "strikeRate": 70.1492537313433 } },
  "M Manhas": {
    "2009": { "strikeRate": 115.38461538461537 },
    "2010": { "strikeRate": 103.97350993377484 },
    "2011": { "strikeRate": 89.0625 },
    "2012": { "strikeRate": 121.21212121212122 },
    "2013": { "strikeRate": 76.47058823529412 },
    "2014": { "strikeRate": 134.6153846153846 }
  },
  "AA Bilakhia": {
    "2009": { "strikeRate": 79.76190476190477 },
    "2010": { "strikeRate": 50 }
  },
  "AN Ghosh": { "2009": { "strikeRate": 87.5 } },
  "BAW Mendis": {
    "2009": { "strikeRate": 0 },
    "2010": { "strikeRate": 100 },
    "2013": { "strikeRate": 50 }
  },
  "DL Vettori": {
    "2009": { "strikeRate": 106.25 },
    "2010": { "strikeRate": 117.85714285714286 },
    "2011": { "strikeRate": 76.66666666666667 },
    "2012": { "strikeRate": 110.71428571428572 }
  },
  "MN van Wyk": { "2009": { "strikeRate": 123.7037037037037 } },
  "RE van der Merwe": {
    "2009": { "strikeRate": 120.79207920792079 },
    "2010": { "strikeRate": 50 },
    "2011": { "strikeRate": 87.5 },
    "2013": { "strikeRate": 88 }
  },
  "TL Suman": {
    "2009": { "strikeRate": 122.79792746113989 },
    "2010": { "strikeRate": 116.28787878787878 },
    "2011": { "strikeRate": 122.64150943396226 },
    "2012": { "strikeRate": 78.94736842105263 },
    "2013": { "strikeRate": 89.65517241379311 }
  },
  "Shoaib Ahmed": { "2009": { "strikeRate": 16.666666666666664 } },
  "GR Napier": { "2009": { "strikeRate": 93.75 } },
  "KP Appanna": {
    "2009": { "strikeRate": 0 },
    "2010": { "strikeRate": 66.66666666666666 }
  },
  "LA Carseldine": { "2009": { "strikeRate": 114.08450704225352 } },
  "NV Ojha": {
    "2009": { "strikeRate": 115.86206896551725 },
    "2010": { "strikeRate": 128.2312925170068 },
    "2011": { "strikeRate": 94.67455621301775 },
    "2012": { "strikeRate": 110.86956521739131 },
    "2013": { "strikeRate": 90 },
    "2014": { "strikeRate": 136.47058823529412 },
    "2015": { "strikeRate": 108.73015873015872 },
    "2016": { "strikeRate": 95.77464788732394 },
    "2017": { "strikeRate": 112.85714285714286 }
  },
  "SM Harwood": { "2009": { "strikeRate": 64.28571428571429 } },
  "M Vijay": {
    "2009": { "strikeRate": 86.95652173913044 },
    "2010": { "strikeRate": 150.1639344262295 },
    "2011": { "strikeRate": 124.35530085959886 },
    "2012": { "strikeRate": 123.07692307692308 },
    "2013": { "strikeRate": 106.48464163822527 },
    "2014": { "strikeRate": 105.0761421319797 },
    "2015": { "strikeRate": 107.72532188841201 },
    "2016": { "strikeRate": 121.44772117962465 }
  },
  "SB Jakati": {
    "2009": { "strikeRate": 125 },
    "2012": { "strikeRate": 58.333333333333336 },
    "2016": { "strikeRate": 50 }
  },
  "DA Warner": {
    "2009": { "strikeRate": 118.97810218978103 },
    "2010": { "strikeRate": 144.6153846153846 },
    "2011": { "strikeRate": 115.30249110320285 },
    "2012": { "strikeRate": 159.0062111801242 },
    "2013": { "strikeRate": 123.12312312312312 },
    "2014": { "strikeRate": 136.78756476683938 },
    "2015": { "strikeRate": 152.7173913043478 },
    "2016": { "strikeRate": 146.4594127806563 },
    "2017": { "strikeRate": 138.74458874458875 }
  },
  "RJ Harris": {
    "2009": { "strikeRate": 116.66666666666667 },
    "2010": { "strikeRate": 115.38461538461537 },
    "2011": { "strikeRate": 79.48717948717949 },
    "2012": { "strikeRate": 163.63636363636365 },
    "2013": { "strikeRate": 40 }
  },
  "D du Preez": { "2009": { "strikeRate": 76.92307692307693 } },
  "M Morkel": {
    "2009": { "strikeRate": 88.88888888888889 },
    "2010": { "strikeRate": 56.25 },
    "2011": { "strikeRate": 160 },
    "2012": { "strikeRate": 60 },
    "2013": { "strikeRate": 190 },
    "2014": { "strikeRate": 100 },
    "2015": { "strikeRate": 133.33333333333331 },
    "2016": { "strikeRate": 100 }
  },
  "AD Mathews": {
    "2009": { "strikeRate": 114.28571428571428 },
    "2010": { "strikeRate": 118.27411167512692 },
    "2012": { "strikeRate": 115.45454545454545 },
    "2013": { "strikeRate": 121.98581560283688 },
    "2015": { "strikeRate": 132.11009174311928 },
    "2017": { "strikeRate": 114.28571428571428 }
  },
  "J Botha": {
    "2009": { "strikeRate": 111.90476190476191 },
    "2011": { "strikeRate": 114.99999999999999 },
    "2012": { "strikeRate": 105.45454545454544 },
    "2013": { "strikeRate": 82.6923076923077 },
    "2015": { "strikeRate": 206.66666666666669 }
  },
  "C Nanda": { "2009": { "strikeRate": 0 } },
  "SL Malinga": {
    "2009": { "strikeRate": 0 },
    "2010": { "strikeRate": 100 },
    "2011": { "strikeRate": 88.88888888888889 },
    "2012": { "strikeRate": 100 },
    "2013": { "strikeRate": 47.368421052631575 },
    "2014": { "strikeRate": 50 },
    "2015": { "strikeRate": 54.54545454545454 },
    "2017": { "strikeRate": 233.33333333333334 }
  },
  "Mashrafe Mortaza": { "2009": { "strikeRate": 100 } },
  "A Singh": {
    "2009": { "strikeRate": 33.33333333333333 },
    "2011": { "strikeRate": 25 },
    "2012": { "strikeRate": 0 }
  },
  "GJ Bailey": {
    "2009": { "strikeRate": 112.5 },
    "2010": { "strikeRate": 66.66666666666666 },
    "2014": { "strikeRate": 135.26315789473685 },
    "2015": { "strikeRate": 132.14285714285714 },
    "2016": { "strikeRate": 84.84848484848484 }
  },
  "AB McDonald": {
    "2009": { "strikeRate": 75 },
    "2010": { "strikeRate": 120.37037037037037 },
    "2011": { "strikeRate": 114.28571428571428 },
    "2012": { "strikeRate": 130.55555555555557 },
    "2013": { "strikeRate": 0 }
  },
  "Y Nagar": {
    "2009": { "strikeRate": 90.9090909090909 },
    "2010": { "strikeRate": 14.285714285714285 },
    "2011": { "strikeRate": 102.77777777777777 },
    "2012": { "strikeRate": 114.17910447761194 }
  },
  "SS Shaikh": { "2009": { "strikeRate": 85.71428571428571 } },
  "R Ashwin": {
    "2009": { "strikeRate": 53.333333333333336 },
    "2010": { "strikeRate": 75 },
    "2011": { "strikeRate": 33.33333333333333 },
    "2012": { "strikeRate": 120 },
    "2013": { "strikeRate": 70 },
    "2014": { "strikeRate": 93.75 },
    "2015": { "strikeRate": 152.94117647058823 },
    "2016": { "strikeRate": 107.89473684210526 }
  },
  "Mohammad Ashraful": { "2009": { "strikeRate": 16.666666666666664 } },
  "CA Pujara": {
    "2010": { "strikeRate": 102.52100840336134 },
    "2011": { "strikeRate": 106.25 },
    "2012": { "strikeRate": 73.91304347826086 },
    "2013": { "strikeRate": 92 },
    "2014": { "strikeRate": 96.89922480620154 }
  },
  "OA Shah": {
    "2010": { "strikeRate": 119.79166666666667 },
    "2011": { "strikeRate": 162.5 },
    "2012": { "strikeRate": 126.39405204460968 },
    "2013": { "strikeRate": 104.16666666666667 }
  },
  "Anirudh Singh": { "2010": { "strikeRate": 91.30434782608695 } },
  "Jaskaran Singh": { "2010": { "strikeRate": 72.72727272727273 } },
  "AP Tare": {
    "2010": { "strikeRate": 121.95121951219512 },
    "2013": { "strikeRate": 146.42857142857142 },
    "2014": { "strikeRate": 123.52941176470588 },
    "2015": { "strikeRate": 77.77777777777779 },
    "2016": { "strikeRate": 53.333333333333336 },
    "2017": { "strikeRate": 72 }
  },
  "AT Rayudu": {
    "2010": { "strikeRate": 137.984496124031 },
    "2011": { "strikeRate": 111.26760563380283 },
    "2012": { "strikeRate": 127.58620689655173 },
    "2013": { "strikeRate": 112.7659574468085 },
    "2014": { "strikeRate": 121.95945945945945 },
    "2015": { "strikeRate": 144.1025641025641 },
    "2016": { "strikeRate": 117.6056338028169 },
    "2017": { "strikeRate": 113.75 }
  },
  "R Sathish": {
    "2010": { "strikeRate": 114.28571428571428 },
    "2011": { "strikeRate": 71.42857142857143 },
    "2013": { "strikeRate": 137.9746835443038 },
    "2016": { "strikeRate": 100 }
  },
  "R McLaren": {
    "2010": { "strikeRate": 92.95774647887323 },
    "2011": { "strikeRate": 89.10891089108911 },
    "2013": { "strikeRate": 50 }
  },
  "AA Jhunjhunwala": {
    "2010": { "strikeRate": 106.3953488372093 },
    "2011": { "strikeRate": 52.63157894736842 },
    "2012": { "strikeRate": 88.88888888888889 }
  },
  "P Dogra": {
    "2010": { "strikeRate": 99.07407407407408 },
    "2012": { "strikeRate": 60 },
    "2013": { "strikeRate": 62.5 }
  },
  "A Uniyal": { "2010": { "strikeRate": 57.14285714285714 } },
  "MS Bisla": {
    "2010": { "strikeRate": 115.34391534391534 },
    "2011": { "strikeRate": 80 },
    "2012": { "strikeRate": 124.56140350877195 },
    "2013": { "strikeRate": 102.8225806451613 },
    "2014": { "strikeRate": 33.33333333333333 },
    "2015": { "strikeRate": 123.33333333333334 }
  },
  "YA Abdulla": { "2010": { "strikeRate": 0 } },
  "EJG Morgan": {
    "2010": { "strikeRate": 112.90322580645163 },
    "2011": { "strikeRate": 111.3821138211382 },
    "2013": { "strikeRate": 122.8 },
    "2015": { "strikeRate": 121.42857142857142 },
    "2016": { "strikeRate": 117.14285714285715 },
    "2017": { "strikeRate": 104.83870967741935 }
  },
  "JM Kemp": { "2010": { "strikeRate": 104 } },
  "S Tyagi": { "2010": { "strikeRate": 75 } },
  "RS Gavaskar": { "2010": { "strikeRate": 25 } },
  "SE Bond": { "2010": { "strikeRate": 50 } },
  "KA Pollard": {
    "2010": { "strikeRate": 179.60526315789474 },
    "2011": { "strikeRate": 103.54609929078013 },
    "2012": { "strikeRate": 134.96932515337423 },
    "2013": { "strikeRate": 144.82758620689654 },
    "2014": { "strikeRate": 131.25 },
    "2015": { "strikeRate": 155.1851851851852 },
    "2016": { "strikeRate": 133.33333333333331 },
    "2017": { "strikeRate": 134.35374149659864 }
  },
  "S Ladda": { "2010": { "strikeRate": 0 } },
  "DP Nannes": { "2010": { "strikeRate": 30.76923076923077 } },
  "MJ Lumb": {
    "2010": { "strikeRate": 141.83673469387753 },
    "2011": { "strikeRate": 0 }
  },
  "DR Martyn": { "2010": { "strikeRate": 73.07692307692307 } },
  "S Narwal": {
    "2010": { "strikeRate": 107.6923076923077 },
    "2013": { "strikeRate": 143.75 }
  },
  "AB Barath": { "2010": { "strikeRate": 97.67441860465115 } },
  "Bipul Sharma": {
    "2010": { "strikeRate": 128.57142857142858 },
    "2011": { "strikeRate": 127.77777777777777 },
    "2012": { "strikeRate": 153.19148936170214 },
    "2015": { "strikeRate": 50 },
    "2016": { "strikeRate": 204 },
    "2017": { "strikeRate": 124 }
  },
  "FY Fazal": {
    "2010": { "strikeRate": 102.49999999999999 },
    "2011": { "strikeRate": 100 }
  },
  "AC Voges": { "2010": { "strikeRate": 126.57342657342659 } },
  "MD Mishra": {
    "2010": { "strikeRate": 111.40939597315436 },
    "2011": { "strikeRate": 111.66666666666667 },
    "2012": { "strikeRate": 100 }
  },
  "UT Yadav": {
    "2010": { "strikeRate": 75 },
    "2011": { "strikeRate": 16.666666666666664 },
    "2012": { "strikeRate": 28.57142857142857 },
    "2013": { "strikeRate": 97.43589743589743 },
    "2014": { "strikeRate": 50 },
    "2015": { "strikeRate": 181.25 },
    "2016": { "strikeRate": 150 },
    "2017": { "strikeRate": 76.92307692307693 }
  },
  "J Theron": {
    "2010": { "strikeRate": 33.33333333333333 },
    "2012": { "strikeRate": 116.66666666666667 },
    "2015": { "strikeRate": 100 }
  },
  "SJ Srivastava": {
    "2010": { "strikeRate": 50 },
    "2011": { "strikeRate": 133.33333333333331 }
  },
  "R Sharma": {
    "2010": { "strikeRate": 111.53846153846155 },
    "2011": { "strikeRate": 104.34782608695652 },
    "2012": { "strikeRate": 18.181818181818183 },
    "2013": { "strikeRate": 64.70588235294117 }
  },
  "Mandeep Singh": {
    "2010": { "strikeRate": 36.36363636363637 },
    "2011": { "strikeRate": 111.90476190476191 },
    "2012": { "strikeRate": 123.78223495702005 },
    "2013": { "strikeRate": 114.03508771929825 },
    "2014": { "strikeRate": 85.71428571428571 },
    "2015": { "strikeRate": 153.921568627451 },
    "2017": { "strikeRate": 105.61797752808988 }
  },
  "KM Jadhav": {
    "2010": { "strikeRate": 126.66666666666666 },
    "2011": { "strikeRate": 78.26086956521739 },
    "2013": { "strikeRate": 119.68503937007875 },
    "2014": { "strikeRate": 143.26923076923077 },
    "2015": { "strikeRate": 132.16783216783216 },
    "2016": { "strikeRate": 127.27272727272727 },
    "2017": { "strikeRate": 137.62886597938143 }
  },
  "SW Tait": {
    "2010": { "strikeRate": 92.3076923076923 },
    "2011": { "strikeRate": 100 },
    "2013": { "strikeRate": 33.33333333333333 }
  },
  "KB Arun Karthik": {
    "2010": { "strikeRate": 60 },
    "2011": { "strikeRate": 87.5 },
    "2013": { "strikeRate": 102.49999999999999 }
  },
  "KAJ Roach": { "2010": { "strikeRate": 111.11111111111111 } },
  "PD Collingwood": { "2010": { "strikeRate": 127.67295597484276 } },
  "CK Langeveldt": {
    "2010": { "strikeRate": 0 },
    "2011": { "strikeRate": 100 }
  },
  "VS Malik": { "2010": { "strikeRate": 120 }, "2014": { "strikeRate": 50 } },
  "A Mithun": {
    "2010": { "strikeRate": 125 },
    "2011": { "strikeRate": 135 },
    "2013": { "strikeRate": 100 }
  },
  "AP Dole": { "2010": { "strikeRate": 147.82608695652172 } },
  "AN Ahmed": {
    "2010": { "strikeRate": 50 },
    "2011": { "strikeRate": 138.46153846153845 },
    "2014": { "strikeRate": 400 },
    "2015": { "strikeRate": 200 }
  },
  "RS Sodhi": { "2010": { "strikeRate": 200 } },
  "DE Bollinger": {
    "2010": { "strikeRate": 105.88235294117648 },
    "2011": { "strikeRate": 0 },
    "2012": { "strikeRate": 60 }
  },
  "S Sriram": {
    "2010": { "strikeRate": 87.09677419354838 },
    "2011": { "strikeRate": 57.14285714285714 }
  },
  "B Sumanth": { "2010": { "strikeRate": 92.10526315789474 } },
  "C Madan": { "2010": { "strikeRate": 71.42857142857143 } },
  "AG Paunikar": {
    "2010": { "strikeRate": 0 },
    "2011": { "strikeRate": 81.66666666666667 }
  },
  "MR Marsh": {
    "2010": { "strikeRate": 90.32258064516128 },
    "2011": { "strikeRate": 100 },
    "2013": { "strikeRate": 128.44036697247708 },
    "2016": { "strikeRate": 63.63636363636363 }
  },
  "AJ Finch": {
    "2010": { "strikeRate": 100 },
    "2011": { "strikeRate": 92.15686274509804 },
    "2012": { "strikeRate": 105.76923076923077 },
    "2013": { "strikeRate": 132.5581395348837 },
    "2014": { "strikeRate": 115.29850746268657 },
    "2015": { "strikeRate": 69.6969696969697 },
    "2016": { "strikeRate": 126.36655948553054 },
    "2017": { "strikeRate": 157.89473684210526 }
  },
  "STR Binny": {
    "2010": { "strikeRate": 160 },
    "2011": { "strikeRate": 119.35483870967742 },
    "2012": { "strikeRate": 128.57142857142858 },
    "2013": { "strikeRate": 143.62745098039215 },
    "2014": { "strikeRate": 100.81967213114753 },
    "2015": { "strikeRate": 107.24637681159422 },
    "2016": { "strikeRate": 153.65853658536585 },
    "2017": { "strikeRate": 101.29870129870129 }
  },
  "Harmeet Singh": {
    "2010": { "strikeRate": 0 },
    "2012": { "strikeRate": 214.28571428571428 },
    "2013": { "strikeRate": 75 }
  },
  "IR Jaggi": {
    "2011": { "strikeRate": 73.68421052631578 },
    "2012": { "strikeRate": 68.18181818181817 },
    "2017": { "strikeRate": 82.5 }
  },
  "DT Christian": {
    "2011": { "strikeRate": 118.01242236024845 },
    "2012": { "strikeRate": 118.85245901639345 },
    "2013": { "strikeRate": 37.5 },
    "2017": { "strikeRate": 151.9230769230769 }
  },
  "RV Gomez": {
    "2011": { "strikeRate": 88.46153846153845 },
    "2013": { "strikeRate": 400 }
  },
  "MA Agarwal": {
    "2011": { "strikeRate": 109.30232558139534 },
    "2012": { "strikeRate": 137.19512195121953 },
    "2013": { "strikeRate": 104.6875 },
    "2014": { "strikeRate": 123.65591397849462 },
    "2015": { "strikeRate": 113.90374331550801 },
    "2016": { "strikeRate": 103.84615384615385 },
    "2017": { "strikeRate": 89.65517241379311 }
  },
  "AUK Pathan": {
    "2011": { "strikeRate": 183.33333333333331 },
    "2012": { "strikeRate": 75 }
  },
  "UBT Chand": {
    "2011": { "strikeRate": 16.666666666666664 },
    "2012": { "strikeRate": 102.85714285714285 },
    "2013": { "strikeRate": 96.93251533742331 },
    "2014": { "strikeRate": 20 },
    "2015": { "strikeRate": 114.6067415730337 },
    "2016": { "strikeRate": 0 }
  },
  "DJ Jacobs": {
    "2011": { "strikeRate": 101.0989010989011 },
    "2012": { "strikeRate": 0 }
  },
  "Sunny Singh": { "2011": { "strikeRate": 138.70967741935485 } },
  "NJ Rimmington": { "2011": { "strikeRate": 100 } },
  "AL Menaria": {
    "2011": { "strikeRate": 113.9240506329114 },
    "2012": { "strikeRate": 106.28019323671498 },
    "2013": { "strikeRate": 50 }
  },
  "WD Parnell": {
    "2011": { "strikeRate": 88.09523809523809 },
    "2012": { "strikeRate": 65.51724137931035 },
    "2013": { "strikeRate": 71.42857142857143 },
    "2014": { "strikeRate": 100 }
  },
  "JJ van der Wath": { "2011": { "strikeRate": 105.88235294117648 } },
  "R Ninan": { "2011": { "strikeRate": 50 } },
  "S Aravind": {
    "2011": { "strikeRate": 130 },
    "2012": { "strikeRate": 175 },
    "2015": { "strikeRate": 0 },
    "2017": { "strikeRate": 80 }
  },
  "MS Wade": { "2011": { "strikeRate": 66.66666666666666 } },
  "TD Paine": { "2011": { "strikeRate": 34.48275862068966 } },
  "SB Wagh": { "2011": { "strikeRate": 66.66666666666666 } },
  "AC Thomas": {
    "2011": { "strikeRate": 25 },
    "2012": { "strikeRate": 126.66666666666666 }
  },
  "JEC Franklin": {
    "2011": { "strikeRate": 133.75 },
    "2012": { "strikeRate": 96.06986899563319 }
  },
  "Shakib Al Hasan": {
    "2011": { "strikeRate": 126.08695652173914 },
    "2012": { "strikeRate": 118.18181818181819 },
    "2014": { "strikeRate": 143.125 },
    "2015": { "strikeRate": 112.5 },
    "2016": { "strikeRate": 105.55555555555556 },
    "2017": { "strikeRate": 100 }
  },
  "DH Yagnik": {
    "2011": { "strikeRate": 69.56521739130434 },
    "2012": { "strikeRate": 178.57142857142858 },
    "2013": { "strikeRate": 126.26262626262626 },
    "2014": { "strikeRate": 66.66666666666666 }
  },
  "S Randiv": { "2011": { "strikeRate": 50 } },
  "BJ Haddin": { "2011": { "strikeRate": 163.63636363636365 } },
  "NLTC Perera": {
    "2011": { "strikeRate": 79.3103448275862 },
    "2012": { "strikeRate": 33.33333333333333 },
    "2013": { "strikeRate": 135.83815028901734 },
    "2015": { "strikeRate": 80 },
    "2016": { "strikeRate": 154.63917525773198 }
  },
  "NL McCullum": { "2011": { "strikeRate": 113.04347826086956 } },
  "JE Taylor": { "2011": { "strikeRate": 75 } },
  "J Syed Mohammad": {
    "2011": { "strikeRate": 115.38461538461537 },
    "2012": { "strikeRate": 400 },
    "2013": { "strikeRate": 76.92307692307693 }
  },
  "RN ten Doeschate": {
    "2011": { "strikeRate": 140.78947368421052 },
    "2012": { "strikeRate": 100 },
    "2013": { "strikeRate": 134.92063492063494 },
    "2014": { "strikeRate": 157.57575757575756 },
    "2015": { "strikeRate": 135.55555555555557 }
  },
  "TR Birt": { "2011": { "strikeRate": 127.11864406779661 } },
  "AG Murtaza": {
    "2011": { "strikeRate": 40 },
    "2012": { "strikeRate": 60 },
    "2013": { "strikeRate": 125 }
  },
  "Harpreet Singh": {
    "2011": { "strikeRate": 70 },
    "2012": { "strikeRate": 100 }
  },
  "M Klinger": { "2011": { "strikeRate": 93.58974358974359 } },
  "AC Blizzard": {
    "2011": { "strikeRate": 136.36363636363635 },
    "2012": { "strikeRate": 0 }
  },
  "I Malhotra": { "2011": { "strikeRate": 175 } },
  "L Ablish": { "2011": { "strikeRate": 0 } },
  "CA Ingram": { "2011": { "strikeRate": 80.76923076923077 } },
  "S Nadeem": {
    "2011": { "strikeRate": 0 },
    "2012": { "strikeRate": 0 },
    "2013": { "strikeRate": 51.85185185185185 },
    "2014": { "strikeRate": 35 },
    "2015": { "strikeRate": 28.57142857142857 },
    "2016": { "strikeRate": 20 },
    "2017": { "strikeRate": 22.22222222222222 }
  },
  "P Parameswaran": {
    "2011": { "strikeRate": 100 },
    "2012": { "strikeRate": 0 }
  },
  "CJ Ferguson": {
    "2011": { "strikeRate": 85.71428571428571 },
    "2012": { "strikeRate": 79.36507936507937 }
  },
  "VR Aaron": {
    "2011": { "strikeRate": 0 },
    "2012": { "strikeRate": 33.33333333333333 },
    "2014": { "strikeRate": 102.94117647058823 },
    "2015": { "strikeRate": 200 },
    "2017": { "strikeRate": 36.36363636363637 }
  },
  "AA Chavan": {
    "2011": { "strikeRate": 33.33333333333333 },
    "2012": { "strikeRate": 137.5 }
  },
  "ND Doshi": { "2011": { "strikeRate": 0 } },
  "B Kumar": {
    "2011": { "strikeRate": 100 },
    "2012": { "strikeRate": 97.5609756097561 },
    "2013": { "strikeRate": 72.22222222222221 },
    "2014": { "strikeRate": 25 },
    "2015": { "strikeRate": 170 },
    "2016": { "strikeRate": 153.57142857142858 },
    "2017": { "strikeRate": 100 }
  },
  "Y Gnaneswara Rao": { "2011": { "strikeRate": 105.55555555555556 } },
  "S Rana": {
    "2011": { "strikeRate": 112.5 },
    "2014": { "strikeRate": 110.6060606060606 }
  },
  "BA Bhatt": { "2011": { "strikeRate": 0 }, "2012": { "strikeRate": 300 } },
  "F du Plessis": {
    "2012": { "strikeRate": 128.38709677419357 },
    "2014": { "strikeRate": 126.25 },
    "2015": { "strikeRate": 119.87381703470032 },
    "2016": { "strikeRate": 121.89349112426035 },
    "2017": { "strikeRate": 114.28571428571428 }
  },
  "RE Levi": { "2012": { "strikeRate": 112.16216216216218 } },
  "GJ Maxwell": {
    "2012": { "strikeRate": 54.54545454545454 },
    "2013": { "strikeRate": 133.33333333333331 },
    "2014": { "strikeRate": 176.9230769230769 },
    "2015": { "strikeRate": 126.95652173913044 },
    "2016": { "strikeRate": 138.75968992248062 },
    "2017": { "strikeRate": 166.66666666666669 }
  },
  "SPD Smith": {
    "2012": { "strikeRate": 133.08823529411765 },
    "2013": { "strikeRate": 118.65671641791045 },
    "2014": { "strikeRate": 132.17391304347825 },
    "2015": { "strikeRate": 130.70175438596493 },
    "2016": { "strikeRate": 146.73913043478262 },
    "2017": { "strikeRate": 118 }
  },
  "MN Samuels": {
    "2012": { "strikeRate": 100 },
    "2013": { "strikeRate": 44.44444444444444 },
    "2017": { "strikeRate": 90.625 }
  },
  "SA Yadav": {
    "2012": { "strikeRate": 0 },
    "2014": { "strikeRate": 133.33333333333331 },
    "2015": { "strikeRate": 136.52173913043478 },
    "2016": { "strikeRate": 122.97297297297298 },
    "2017": { "strikeRate": 117.97752808988764 }
  },
  "KK Cooper": {
    "2012": { "strikeRate": 190 },
    "2013": { "strikeRate": 177.27272727272728 },
    "2014": { "strikeRate": 139.28571428571428 }
  },
  "JP Faulkner": {
    "2012": { "strikeRate": 100 },
    "2013": { "strikeRate": 100 },
    "2014": { "strikeRate": 182.82828282828282 },
    "2015": { "strikeRate": 124.13793103448276 },
    "2016": { "strikeRate": 128.33333333333334 },
    "2017": { "strikeRate": 90 }
  },
  "HV Patel": {
    "2012": { "strikeRate": 88.23529411764706 },
    "2014": { "strikeRate": 185.71428571428572 },
    "2015": { "strikeRate": 135.71428571428572 }
  },
  "DAJ Bracewell": { "2012": { "strikeRate": 133.33333333333331 } },
  "DJ Harris": { "2012": { "strikeRate": 107.76699029126213 } },
  "Ankit Sharma": {
    "2012": { "strikeRate": 138.46153846153845 },
    "2014": { "strikeRate": 109.6774193548387 },
    "2015": { "strikeRate": 116.66666666666667 },
    "2016": { "strikeRate": 100 },
    "2017": { "strikeRate": 156.25 }
  },
  "SP Narine": {
    "2012": { "strikeRate": 112.5 },
    "2013": { "strikeRate": 105 },
    "2014": { "strikeRate": 66.66666666666666 },
    "2015": { "strikeRate": 0 },
    "2016": { "strikeRate": 50 },
    "2017": { "strikeRate": 165.92592592592592 }
  },
  "GB Hogg": {
    "2012": { "strikeRate": 93.75 },
    "2015": { "strikeRate": 116.66666666666667 }
  },
  "RR Bhatkal": { "2012": { "strikeRate": 0 } },
  "CJ McKay": { "2012": { "strikeRate": 53.333333333333336 } },
  "N Saini": { "2012": { "strikeRate": 97.9020979020979 } },
  "DA Miller": {
    "2012": { "strikeRate": 128.94736842105263 },
    "2013": { "strikeRate": 162.64591439688715 },
    "2014": { "strikeRate": 145.27687296416937 },
    "2015": { "strikeRate": 130.2919708029197 },
    "2016": { "strikeRate": 115.8273381294964 },
    "2017": { "strikeRate": 101.21951219512195 }
  },
  "Azhar Mahmood": {
    "2012": { "strikeRate": 128.2758620689655 },
    "2013": { "strikeRate": 124.0506329113924 },
    "2015": { "strikeRate": 75 }
  },
  "P Negi": {
    "2012": { "strikeRate": 120 },
    "2015": { "strikeRate": 150.64935064935065 },
    "2016": { "strikeRate": 90.47619047619048 },
    "2017": { "strikeRate": 126.3157894736842 }
  },
  "RJ Peterson": { "2012": { "strikeRate": 100 } },
  "KMDN Kulasekara": { "2012": { "strikeRate": 166.66666666666669 } },
  "A Ashish Reddy": {
    "2012": { "strikeRate": 116.66666666666667 },
    "2013": { "strikeRate": 138.88888888888889 },
    "2015": { "strikeRate": 158.69565217391303 },
    "2016": { "strikeRate": 156.66666666666666 }
  },
  "V Pratap Singh": { "2012": { "strikeRate": 0 } },
  "BB Samantray": {
    "2012": { "strikeRate": 100 },
    "2013": { "strikeRate": 107.89473684210526 }
  },
  "MJ Clarke": { "2012": { "strikeRate": 102.08333333333333 } },
  "Gurkeerat Singh": {
    "2012": { "strikeRate": 159.25925925925927 },
    "2013": { "strikeRate": 110.20408163265304 },
    "2015": { "strikeRate": 85.36585365853658 },
    "2016": { "strikeRate": 129.8850574712644 }
  },
  "AP Majumdar": { "2012": { "strikeRate": 112.98701298701299 } },
  "PA Reddy": {
    "2012": { "strikeRate": 115.87301587301589 },
    "2013": { "strikeRate": 87.5 }
  },
  "K Upadhyay": {
    "2012": { "strikeRate": 137.5 },
    "2013": { "strikeRate": 100 }
  },
  "P Awana": {
    "2012": { "strikeRate": 80 },
    "2013": { "strikeRate": 11.11111111111111 }
  },
  "AD Russell": {
    "2012": { "strikeRate": 174.07407407407408 },
    "2013": { "strikeRate": 73.33333333333333 },
    "2014": { "strikeRate": 25 },
    "2015": { "strikeRate": 186.28571428571428 },
    "2016": { "strikeRate": 150.4 }
  },
  "A Chandila": {
    "2012": { "strikeRate": 0 },
    "2013": { "strikeRate": 66.66666666666666 }
  },
  "CA Lynn": {
    "2012": { "strikeRate": 60 },
    "2014": { "strikeRate": 111.53846153846155 },
    "2016": { "strikeRate": 108.69565217391303 },
    "2017": { "strikeRate": 168.57142857142858 }
  },
  "Sunny Gupta": { "2012": { "strikeRate": 0 } },
  "MC Juneja": { "2013": { "strikeRate": 93.28358208955224 } },
  "KK Nair": {
    "2013": { "strikeRate": 75 },
    "2014": { "strikeRate": 139.24050632911394 },
    "2015": { "strikeRate": 123.12925170068027 },
    "2016": { "strikeRate": 117.4342105263158 },
    "2017": { "strikeRate": 122.70742358078604 }
  },
  "GH Vihari": {
    "2013": { "strikeRate": 83.97212543554006 },
    "2015": { "strikeRate": 108.33333333333333 }
  },
  "MDKJ Perera": { "2013": { "strikeRate": 107.6923076923077 } },
  "R Shukla": {
    "2013": { "strikeRate": 50 },
    "2014": { "strikeRate": 85.71428571428571 }
  },
  "B Laughlin": { "2013": { "strikeRate": 44.44444444444444 } },
  "AS Rajpoot": {
    "2013": { "strikeRate": 33.33333333333333 },
    "2017": { "strikeRate": 57.14285714285714 }
  },
  "M Vohra": {
    "2013": { "strikeRate": 137.60683760683762 },
    "2014": { "strikeRate": 132.78688524590163 },
    "2015": { "strikeRate": 98.79518072289156 },
    "2016": { "strikeRate": 118.38235294117648 },
    "2017": { "strikeRate": 134.7058823529412 }
  },
  "JD Unadkat": {
    "2013": { "strikeRate": 100 },
    "2014": { "strikeRate": 16.666666666666664 },
    "2017": { "strikeRate": 40 }
  },
  "Mohammed Shami": {
    "2013": { "strikeRate": 50 },
    "2014": { "strikeRate": 37.5 },
    "2016": { "strikeRate": 50 },
    "2017": { "strikeRate": 150 }
  },
  "BMAJ Mendis": { "2013": { "strikeRate": 85.18518518518519 } },
  "R Rampaul": {
    "2013": { "strikeRate": 97.43589743589743 },
    "2014": { "strikeRate": 100 }
  },
  "CH Morris": {
    "2013": { "strikeRate": 82.35294117647058 },
    "2015": { "strikeRate": 161.70212765957444 },
    "2016": { "strikeRate": 171.05263157894737 },
    "2017": { "strikeRate": 158.76288659793815 }
  },
  "SV Samson": {
    "2013": { "strikeRate": 115.08379888268156 },
    "2014": { "strikeRate": 121.07142857142857 },
    "2015": { "strikeRate": 122.89156626506023 },
    "2016": { "strikeRate": 109.81132075471697 },
    "2017": { "strikeRate": 140.36363636363635 }
  },
  "SMSM Senanayake": { "2013": { "strikeRate": 58.82352941176471 } },
  "BJ Rohrer": { "2013": { "strikeRate": 132.1917808219178 } },
  "KL Rahul": {
    "2013": { "strikeRate": 125 },
    "2014": { "strikeRate": 100 },
    "2015": { "strikeRate": 106.76691729323309 },
    "2016": { "strikeRate": 143.32129963898916 }
  },
  "Q de Kock": {
    "2013": { "strikeRate": 37.5 },
    "2014": { "strikeRate": 115.90909090909092 },
    "2015": { "strikeRate": 156.4102564102564 },
    "2016": { "strikeRate": 130.88235294117646 }
  },
  "R Dhawan": {
    "2013": { "strikeRate": 100 },
    "2014": { "strikeRate": 109.33333333333333 },
    "2015": { "strikeRate": 109.09090909090908 },
    "2016": { "strikeRate": 233.33333333333334 }
  },
  "MG Johnson": {
    "2013": { "strikeRate": 105.40540540540539 },
    "2014": { "strikeRate": 109.80392156862746 },
    "2015": { "strikeRate": 81.57894736842105 },
    "2016": { "strikeRate": 35.714285714285715 },
    "2017": { "strikeRate": 117.64705882352942 }
  },
  "LJ Wright": { "2013": { "strikeRate": 168.25396825396825 } },
  "IC Pandey": { "2013": { "strikeRate": 0 } },
  "CM Gautam": {
    "2013": { "strikeRate": 118.91891891891892 },
    "2014": { "strikeRate": 104.3103448275862 },
    "2015": { "strikeRate": 80 }
  },
  "X Thalaivan Sargunam": { "2013": { "strikeRate": 58.82352941176471 } },
  "DJG Sammy": {
    "2013": { "strikeRate": 127.94117647058823 },
    "2014": { "strikeRate": 111.34020618556701 },
    "2015": { "strikeRate": 72.22222222222221 }
  },
  "KW Richardson": {
    "2013": { "strikeRate": 94.44444444444444 },
    "2014": { "strikeRate": 50 },
    "2016": { "strikeRate": 100 }
  },
  "MM Sharma": {
    "2013": { "strikeRate": 0 },
    "2014": { "strikeRate": 33.33333333333333 },
    "2015": { "strikeRate": 155.55555555555557 },
    "2016": { "strikeRate": 118.5185185185185 },
    "2017": { "strikeRate": 100 }
  },
  "UA Birla": { "2013": { "strikeRate": 46.666666666666664 } },
  "Parvez Rasool": {
    "2013": { "strikeRate": 55.55555555555556 },
    "2015": { "strikeRate": 100 },
    "2016": { "strikeRate": 111.11111111111111 }
  },
  "Sandeep Sharma": {
    "2013": { "strikeRate": 0 },
    "2014": { "strikeRate": 40 },
    "2015": { "strikeRate": 64.28571428571429 },
    "2016": { "strikeRate": 88.88888888888889 },
    "2017": { "strikeRate": 100 }
  },
  "S Kaul": {
    "2013": { "strikeRate": 77.77777777777779 },
    "2014": { "strikeRate": 100 },
    "2017": { "strikeRate": 0 }
  },
  "Sachin Baby": {
    "2013": { "strikeRate": 42.857142857142854 },
    "2016": { "strikeRate": 145.1219512195122 },
    "2017": { "strikeRate": 88.23529411764706 }
  },
  "PV Tambe": {
    "2013": { "strikeRate": 50 },
    "2014": { "strikeRate": 55.55555555555556 },
    "2015": { "strikeRate": 60 },
    "2016": { "strikeRate": 36.84210526315789 }
  },
  "NM Coulter-Nile": {
    "2013": { "strikeRate": 150 },
    "2015": { "strikeRate": 100 },
    "2016": { "strikeRate": 64.28571428571429 },
    "2017": { "strikeRate": 107.6923076923077 }
  },
  "CJ Anderson": {
    "2014": { "strikeRate": 142.4731182795699 },
    "2015": { "strikeRate": 116.3265306122449 },
    "2017": { "strikeRate": 109.23076923076923 }
  },
  "NJ Maddinson": {
    "2014": { "strikeRate": 114.28571428571428 },
    "2015": { "strikeRate": 57.14285714285714 }
  },
  "AR Patel": {
    "2014": { "strikeRate": 101.63934426229508 },
    "2015": { "strikeRate": 113.8121546961326 },
    "2016": { "strikeRate": 137.03703703703704 },
    "2017": { "strikeRate": 132.7485380116959 }
  },
  "JJ Bumrah": {
    "2014": { "strikeRate": 25 },
    "2016": { "strikeRate": 72.72727272727273 },
    "2017": { "strikeRate": 133.33333333333331 }
  },
  "JDS Neesham": { "2014": { "strikeRate": 91.30434782608695 } },
  "TG Southee": {
    "2014": { "strikeRate": 100 },
    "2015": { "strikeRate": 144.44444444444443 },
    "2016": { "strikeRate": 150 },
    "2017": { "strikeRate": 233.33333333333334 }
  },
  "MA Starc": {
    "2014": { "strikeRate": 101.19047619047619 },
    "2015": { "strikeRate": 78.57142857142857 }
  },
  "BR Dunk": { "2014": { "strikeRate": 111.11111111111111 } },
  "RR Rossouw": {
    "2014": { "strikeRate": 95.1219512195122 },
    "2015": { "strikeRate": 140 }
  },
  "Shivam Sharma": { "2014": { "strikeRate": 166.66666666666669 } },
  "YS Chahal": {
    "2014": { "strikeRate": 50 },
    "2015": { "strikeRate": 100 },
    "2017": { "strikeRate": 50 }
  },
  "LMP Simmons": {
    "2014": { "strikeRate": 131.77257525083613 },
    "2015": { "strikeRate": 118.68131868131869 },
    "2016": { "strikeRate": 100 },
    "2017": { "strikeRate": 118.10344827586208 }
  },
  "VH Zol": { "2014": { "strikeRate": 111.53846153846155 } },
  "BCJ Cutting": {
    "2014": { "strikeRate": 133.33333333333331 },
    "2016": { "strikeRate": 175.67567567567568 },
    "2017": { "strikeRate": 188.88888888888889 }
  },
  "Imran Tahir": {
    "2014": { "strikeRate": 80 },
    "2015": { "strikeRate": 83.33333333333334 },
    "2016": { "strikeRate": 71.42857142857143 },
    "2017": { "strikeRate": 0 }
  },
  "BE Hendricks": { "2014": { "strikeRate": 0 }, "2015": { "strikeRate": 50 } },
  "S Gopal": {
    "2014": { "strikeRate": 110.00000000000001 },
    "2015": { "strikeRate": 100 },
    "2016": { "strikeRate": 12.5 }
  },
  "M de Lange": { "2014": { "strikeRate": 50 } },
  "R Tewatia": {
    "2014": { "strikeRate": 123.07692307692308 },
    "2017": { "strikeRate": 172.72727272727272 }
  },
  "JO Holder": {
    "2014": { "strikeRate": 133.33333333333331 },
    "2016": { "strikeRate": 110.00000000000001 }
  },
  "Karanveer Singh": {
    "2014": { "strikeRate": 100 },
    "2015": { "strikeRate": 68.75 }
  },
  "SS Iyer": {
    "2015": { "strikeRate": 121.94444444444446 },
    "2016": { "strikeRate": 65.21739130434783 },
    "2017": { "strikeRate": 135.7429718875502 }
  },
  "DJ Hooda": {
    "2015": { "strikeRate": 152.52525252525254 },
    "2016": { "strikeRate": 115.19999999999999 },
    "2017": { "strikeRate": 147.16981132075472 }
  },
  "Anureet Singh": {
    "2015": { "strikeRate": 58.06451612903226 },
    "2017": { "strikeRate": 125 }
  },
  "KS Williamson": {
    "2015": { "strikeRate": 106.89655172413792 },
    "2016": { "strikeRate": 98.4126984126984 },
    "2017": { "strikeRate": 150.58823529411765 }
  },
  "SA Abbott": { "2015": { "strikeRate": 115.38461538461537 } },
  "J Suchith": { "2015": { "strikeRate": 145.45454545454547 } },
  "RG More": { "2015": { "strikeRate": 100 } },
  "HH Pandya": {
    "2015": { "strikeRate": 164.70588235294116 },
    "2016": { "strikeRate": 66.66666666666666 },
    "2017": { "strikeRate": 145.3488372093023 }
  },
  "D Wiese": {
    "2015": { "strikeRate": 135.55555555555557 },
    "2016": { "strikeRate": 125 }
  },
  "SN Khan": {
    "2015": { "strikeRate": 154.16666666666669 },
    "2016": { "strikeRate": 212.9032258064516 }
  },
  "MJ McClenaghan": {
    "2015": { "strikeRate": 216.66666666666666 },
    "2016": { "strikeRate": 147.82608695652172 },
    "2017": { "strikeRate": 100 }
  },
  "DJ Muthuswami": { "2015": { "strikeRate": 33.33333333333333 } },
  "PJ Cummins": {
    "2015": { "strikeRate": 0 },
    "2017": { "strikeRate": 142.59259259259258 }
  },
  "SN Thakur": {
    "2015": { "strikeRate": 116.66666666666667 },
    "2017": { "strikeRate": 0 }
  },
  "JC Buttler": {
    "2016": { "strikeRate": 134.92063492063494 },
    "2017": { "strikeRate": 146.7741935483871 }
  },
  "CR Brathwaite": {
    "2016": { "strikeRate": 207.50000000000003 },
    "2017": { "strikeRate": 75 }
  },
  "MP Stoinis": {
    "2016": { "strikeRate": 131.53153153153156 },
    "2017": { "strikeRate": 68 }
  },
  "Ishan Kishan": {
    "2016": { "strikeRate": 102.4390243902439 },
    "2017": { "strikeRate": 129.4392523364486 }
  },
  "C Munro": { "2016": { "strikeRate": 96.7741935483871 } },
  "P Sahu": { "2016": { "strikeRate": 146.15384615384613 } },
  "KH Pandya": {
    "2016": { "strikeRate": 186.61417322834646 },
    "2017": { "strikeRate": 130.64516129032256 }
  },
  "AD Nath": {
    "2016": { "strikeRate": 74.07407407407408 },
    "2017": { "strikeRate": 0 }
  },
  "MJ Guptill": {
    "2016": { "strikeRate": 103.63636363636364 },
    "2017": { "strikeRate": 150 }
  },
  "KJ Abbott": { "2016": { "strikeRate": 162.5 } },
  "TM Head": {
    "2016": { "strikeRate": 128.57142857142858 },
    "2017": { "strikeRate": 138.5321100917431 }
  },
  "M Ashwin": { "2016": { "strikeRate": 0 } },
  "NS Naik": { "2016": { "strikeRate": 69.6969696969697 } },
  "RR Pant": {
    "2016": { "strikeRate": 127.74193548387096 },
    "2017": { "strikeRate": 161.94690265486727 }
  },
  "SW Billings": {
    "2016": { "strikeRate": 133.33333333333331 },
    "2017": { "strikeRate": 128.97196261682242 }
  },
  "KC Cariappa": {
    "2016": { "strikeRate": 118.18181818181819 },
    "2017": { "strikeRate": 28.57142857142857 }
  },
  "PSP Handscomb": { "2016": { "strikeRate": 50 } },
  "Swapnil Singh": {
    "2016": { "strikeRate": 0 },
    "2017": { "strikeRate": 63.1578947368421 }
  },
  "J Yadav": { "2016": { "strikeRate": 50 } },
  "UT Khawaja": { "2016": { "strikeRate": 120.95238095238095 } },
  "HM Amla": {
    "2016": { "strikeRate": 128.68852459016392 },
    "2017": { "strikeRate": 141.89189189189187 }
  },
  "F Behardien": { "2016": { "strikeRate": 107.6923076923077 } },
  "BB Sran": { "2016": { "strikeRate": 100 } },
  "A Zampa": {
    "2016": { "strikeRate": 0 },
    "2017": { "strikeRate": 71.42857142857143 }
  },
  "N Rana": {
    "2016": { "strikeRate": 133.33333333333331 },
    "2017": { "strikeRate": 120.21660649819495 }
  },
  "S Kaushik": { "2016": { "strikeRate": 0 } },
  "ER Dwivedi": { "2016": { "strikeRate": 160 } },
  "CJ Jordan": { "2016": { "strikeRate": 75 }, "2017": { "strikeRate": 0 } },
  "TS Mills": { "2017": { "strikeRate": 72.72727272727273 } },
  "A Choudhary": { "2017": { "strikeRate": 125 } },
  "BA Stokes": { "2017": { "strikeRate": 139.20704845814979 } },
  "JJ Roy": { "2017": { "strikeRate": 143.90243902439025 } },
  "Vishnu Vinod": { "2017": { "strikeRate": 73.07692307692307 } },
  "Basil Thampi": { "2017": { "strikeRate": 93.33333333333333 } },
  "CR Woakes": { "2017": { "strikeRate": 97.87234042553192 } },
  "RA Tripathi": { "2017": { "strikeRate": 142.1818181818182 } },
  "DL Chahar": { "2017": { "strikeRate": 233.33333333333334 } },
  "V Shankar": { "2017": { "strikeRate": 131.1688311688312 } },
  "Rashid Khan": { "2017": { "strikeRate": 122.22222222222223 } },
  "RD Chahar": { "2017": { "strikeRate": 150 } },
  "LH Ferguson": { "2017": { "strikeRate": 100 } },
  "C de Grandhomme": { "2017": { "strikeRate": 136.95652173913044 } },
  "AF Milne": { "2017": { "strikeRate": 58.333333333333336 } },
  "S Badree": { "2017": { "strikeRate": 52 } },
  "Mohammad Nabi": { "2017": { "strikeRate": 66.66666666666666 } },
  "AJ Tye": { "2017": { "strikeRate": 176.66666666666666 } },
  "K Rabada": { "2017": { "strikeRate": 80.88235294117648 } },
  "Kuldeep Yadav": { "2017": { "strikeRate": 90.9090909090909 } },
  "Washington Sundar": { "2017": { "strikeRate": 75 } },
  "DM Bravo": { "2017": { "strikeRate": 120 } },
  "AR Bawne": { "2017": { "strikeRate": 100 } },
  "SP Jackson": { "2017": { "strikeRate": 122.58064516129032 } },
  "Ankit Soni": { "2017": { "strikeRate": 77.77777777777779 } },
  "TA Boult": { "2017": { "strikeRate": 62.5 } }
}
