[
  ["RN ten Doeschate", 3.43],
  ["J Yadav", 4.14],
  ["V Kohli", 5.45],
  ["R Ashwin", 5.72],
  ["S Nadeem", 5.86],
  ["Z Khan", 6.15],
  ["Parvez Rasool", 6.2],  
  ["MC Henriques", 6.27],
  ["MA Starc", 6.75],
  ["M de Lange", 6.92]
]      
